INSERT INTO "POINT_ROULETTE"(
            "ROU_ID", "CHANNELNAME", "ROUTYPE", "AREA01", "AREA02", "AREA03", 
            "AREA04", "AREA05", "AREA06", "POINT01", "POINT02", "POINT03", 
            "POINT04", "POINT05", "POINT06", "MAX01", "MAX02", "MAX03", "MAX04", 
            "MAX05", "MAX06", "TOTMAX", "TIMEGBN", "STARTTIME", "ENDTIME", 
            "TIMENUM", "STARTDATE", "ENDDATE", "STATUS", "USERID", "IPADDR", 
            "REGDATE", "MODIIPADDR", "MODIDATE")
    VALUES ('2016100001', 'clip', '0', '꽝', '1 포인트', '10 포인트', '100 포인트', '1000 포인트', '10000 포인트', 
    0, 1, 10, 100, 1000, 10000, 
    0, 10000, 1000, 100, 10, 1,
     12000, 6, 12, 13, 6, '20160601', '20160901', '0', 'yhpark', '222.107.254.79', 
            now(), '222.107.254.79', now());
            
            
            
          INSERT INTO "POINT_ROULETTE"(
            "ROU_ID", "CHANNELNAME", "ROUTYPE", "AREA01", "AREA02", "AREA03", 
            "AREA04", "AREA05", "AREA06", "POINT01", "POINT02", "POINT03", 
            "POINT04", "POINT05", "POINT06", "MAX01", "MAX02", "MAX03", "MAX04", 
            "MAX05", "MAX06", "TOTMAX", "TIMEGBN", "STARTTIME", "ENDTIME", 
            "TIMENUM", "STARTDATE", "ENDDATE", "STATUS", "USERID", "IPADDR", 
            "REGDATE", "MODIIPADDR", "MODIDATE")
    VALUES ('2016100002', 
'clip', '1', '꽝', '1 포인트', '10 포인트', '100 포인트', '1000 포인트', '10000 포인트', 
    0, 1, 10, 100, 1000, 10000, 
    0, 10000, 1000, 100, 10, 1,
     12000, 6, 12, 13, 6, '20160601', '20160901', '1', 'yhpark', '222.107.254.79', 
            now(), '222.107.254.79', now());  
            
            
            
            INSERT INTO "POINT_ROULETTE"(
            "ROU_ID", "CHANNELNAME", "ROUTYPE", "AREA01", "AREA02", "AREA03", 
            "AREA04", "AREA05", "AREA06", "POINT01", "POINT02", "POINT03", 
            "POINT04", "POINT05", "POINT06", "MAX01", "MAX02", "MAX03", "MAX04", 
            "MAX05", "MAX06", "TOTMAX", "TIMEGBN", "STARTTIME", "ENDTIME", 
            "TIMENUM", "STARTDATE", "ENDDATE", "STATUS", "USERID", "IPADDR", 
            "REGDATE", "MODIIPADDR", "MODIDATE")
    VALUES (
'2016001003259', 
'clip',
 '0',
 '꽝', '1 포인트', '10 포인트', '100 포인트', '1000 포인트', '10000 포인트', 0, 1, 10, 100, 1000, 10000, 0, 10000, 1000, 100, 10, 1, 12000, 6, 12, 13, 6, '20160601', '20160901', 
 '0', 
 'yhpark', '222.107.254.79', now(), '222.107.254.79', now());
            
            
            
            
            
            
            
            
            
            
            
            
            
            
            
            
            
            
            
            
            
            
            
            
            
            
            
            
            
            
            
            
            
            
            
            
            
            
            
            
            
            
            
            
            
            
            
            
            
            
            
            
            
            
            
            
            
            
            
            
            
            
            
            
            
            
            
            
            
            
            
            
            
            
            
            
            
            
            
            
            
            
            
            
            
            
            
            
            
            
            
            
            
            
            
            
            
            
            
            
            
            
            
            
            
            
            
            
            
            
            
            
            
            
            
            
            
            